[gd_scene load_steps=2 format=3 uid="uid://ueroxqsslsjm"]

[ext_resource type="Script" path="res://architecture/effect/effect.gd" id="1_vsrm8"]

[node name="Effect" type="Node"]
script = ExtResource("1_vsrm8")
