; Engine configuration file.
; It's best edited using the editor UI and not directly,
; since the parameters that go here are not all obvious.
;
; Format:
;   [section] ; section goes between []
;   param=value ; assign values to parameters

config_version=5

[application]

config/name="The Gods We Worship"
run/main_scene="res://demos/2_entity_test/world.tscn"
config/features=PackedStringArray("4.0", "Forward Plus")
config/icon="res://icon.svg"

[display]

window/size/viewport_width=1920
window/size/viewport_height=1080
window/size/resizable=false
window/size/borderless=true
window/size/always_on_top=true
window/vsync/vsync_mode=2
window/stretch/mode="viewport"

[input]

player_left={
"deadzone": 0.2,
"events": [Object(InputEventJoypadMotion,"resource_local_to_scene":false,"resource_name":"","device":-1,"axis":0,"axis_value":-1.0,"script":null)
, Object(InputEventKey,"resource_local_to_scene":false,"resource_name":"","device":-1,"window_id":0,"alt_pressed":false,"shift_pressed":false,"ctrl_pressed":false,"meta_pressed":false,"pressed":false,"keycode":0,"physical_keycode":65,"key_label":0,"unicode":97,"echo":false,"script":null)
]
}
player_right={
"deadzone": 0.2,
"events": [Object(InputEventJoypadMotion,"resource_local_to_scene":false,"resource_name":"","device":-1,"axis":0,"axis_value":1.0,"script":null)
, Object(InputEventKey,"resource_local_to_scene":false,"resource_name":"","device":-1,"window_id":0,"alt_pressed":false,"shift_pressed":false,"ctrl_pressed":false,"meta_pressed":false,"pressed":false,"keycode":0,"physical_keycode":68,"key_label":0,"unicode":100,"echo":false,"script":null)
]
}
player_forward={
"deadzone": 0.2,
"events": [Object(InputEventJoypadMotion,"resource_local_to_scene":false,"resource_name":"","device":-1,"axis":1,"axis_value":-1.0,"script":null)
, Object(InputEventKey,"resource_local_to_scene":false,"resource_name":"","device":-1,"window_id":0,"alt_pressed":false,"shift_pressed":false,"ctrl_pressed":false,"meta_pressed":false,"pressed":false,"keycode":0,"physical_keycode":87,"key_label":0,"unicode":119,"echo":false,"script":null)
]
}
player_backward={
"deadzone": 0.2,
"events": [Object(InputEventJoypadMotion,"resource_local_to_scene":false,"resource_name":"","device":-1,"axis":1,"axis_value":1.0,"script":null)
, Object(InputEventKey,"resource_local_to_scene":false,"resource_name":"","device":-1,"window_id":0,"alt_pressed":false,"shift_pressed":false,"ctrl_pressed":false,"meta_pressed":false,"pressed":false,"keycode":0,"physical_keycode":83,"key_label":0,"unicode":115,"echo":false,"script":null)
]
}
player_jump={
"deadzone": 0.5,
"events": [Object(InputEventJoypadButton,"resource_local_to_scene":false,"resource_name":"","device":-1,"button_index":0,"pressure":0.0,"pressed":true,"script":null)
, Object(InputEventKey,"resource_local_to_scene":false,"resource_name":"","device":-1,"window_id":0,"alt_pressed":false,"shift_pressed":false,"ctrl_pressed":false,"meta_pressed":false,"pressed":false,"keycode":0,"physical_keycode":32,"key_label":0,"unicode":32,"echo":false,"script":null)
]
}
player_run={
"deadzone": 0.5,
"events": [Object(InputEventJoypadButton,"resource_local_to_scene":false,"resource_name":"","device":-1,"button_index":7,"pressure":0.0,"pressed":true,"script":null)
, Object(InputEventKey,"resource_local_to_scene":false,"resource_name":"","device":-1,"window_id":0,"alt_pressed":false,"shift_pressed":false,"ctrl_pressed":false,"meta_pressed":false,"pressed":false,"keycode":0,"physical_keycode":4194325,"key_label":0,"unicode":0,"echo":false,"script":null)
, Object(InputEventJoypadButton,"resource_local_to_scene":false,"resource_name":"","device":-1,"button_index":1,"pressure":0.0,"pressed":true,"script":null)
]
}
camera_left={
"deadzone": 0.2,
"events": [Object(InputEventJoypadMotion,"resource_local_to_scene":false,"resource_name":"","device":-1,"axis":2,"axis_value":-1.0,"script":null)
, Object(InputEventKey,"resource_local_to_scene":false,"resource_name":"","device":-1,"window_id":0,"alt_pressed":false,"shift_pressed":false,"ctrl_pressed":false,"meta_pressed":false,"pressed":false,"keycode":0,"physical_keycode":4194319,"key_label":0,"unicode":0,"echo":false,"script":null)
]
}
camera_right={
"deadzone": 0.2,
"events": [Object(InputEventJoypadMotion,"resource_local_to_scene":false,"resource_name":"","device":-1,"axis":2,"axis_value":1.0,"script":null)
, Object(InputEventKey,"resource_local_to_scene":false,"resource_name":"","device":-1,"window_id":0,"alt_pressed":false,"shift_pressed":false,"ctrl_pressed":false,"meta_pressed":false,"pressed":false,"keycode":0,"physical_keycode":4194321,"key_label":0,"unicode":0,"echo":false,"script":null)
]
}
camera_forward={
"deadzone": 0.2,
"events": [Object(InputEventJoypadMotion,"resource_local_to_scene":false,"resource_name":"","device":-1,"axis":3,"axis_value":-1.0,"script":null)
, Object(InputEventKey,"resource_local_to_scene":false,"resource_name":"","device":-1,"window_id":0,"alt_pressed":false,"shift_pressed":false,"ctrl_pressed":false,"meta_pressed":false,"pressed":false,"keycode":0,"physical_keycode":4194320,"key_label":0,"unicode":0,"echo":false,"script":null)
]
}
camera_backward={
"deadzone": 0.2,
"events": [Object(InputEventJoypadMotion,"resource_local_to_scene":false,"resource_name":"","device":-1,"axis":3,"axis_value":1.0,"script":null)
, Object(InputEventKey,"resource_local_to_scene":false,"resource_name":"","device":-1,"window_id":0,"alt_pressed":false,"shift_pressed":false,"ctrl_pressed":false,"meta_pressed":false,"pressed":false,"keycode":0,"physical_keycode":4194322,"key_label":0,"unicode":0,"echo":false,"script":null)
]
}
